,date,city,rent,product
0,2018-01-01,Nevşehir,8,1919
1,2018-01-02,İzmir,12,1067
2,2018-01-03,Ordu,4,1129
3,2018-01-04,Mardin,5,1757
4,2018-01-05,Denizli,9,1988
5,2018-01-06,Bitlis,7,1548
6,2018-01-07,Bursa,4,1195
7,2018-01-08,Yalova,9,1735
8,2018-01-09,Tekirdağ,7,1915
9,2018-01-10,Niğde,1,1289
10,2018-01-11,Bilecik,13,1165
11,2018-01-12,Sinop,6,1213
12,2018-01-13,Karaman,16,1000
13,2018-01-14,Isparta,9,1212
14,2018-01-15,Karabük,5,1201
15,2018-01-16,Muğla,6,1885
16,2018-01-17,Kütahya,10,1050
17,2018-01-18,Isparta,12,1681
18,2018-01-19,Yalova,4,1345
19,2018-01-20,Adana,4,1853
20,2018-01-21,Kırşehir,4,1590
21,2018-01-22,Çorum,17,1783
22,2018-01-23,Şırnak,9,1662
23,2018-01-24,Mardin,14,1146
24,2018-01-25,Gümüşhane,5,1344
25,2018-01-26,Kocaeli,11,1200
26,2018-01-27,Erzincan,6,1249
27,2018-01-28,İçel (Mersin),9,1014
28,2018-01-29,Çanakkale,3,1118
29,2018-01-30,Kayseri,6,1691
30,2018-01-31,Elazığ,6,1669
31,2018-02-01,Muş,7,1566
32,2018-02-02,İçel (Mersin),9,1980
33,2018-02-03,Kars,1,1985
34,2018-02-04,Manisa,17,1231
35,2018-02-05,Kars,3,1279
36,2018-02-06,Ordu,8,1780
37,2018-02-07,Sivas,6,1682
38,2018-02-08,Gaziantep,4,1659
39,2018-02-09,Ağrı,13,1454
40,2018-02-10,Sivas,12,1273
41,2018-02-11,Niğde,16,1331
42,2018-02-12,Bingöl,3,1686
43,2018-02-13,Sakarya,6,1857
44,2018-02-14,Afyon,4,1208
45,2018-02-15,Denizli,2,1041
46,2018-02-16,Niğde,1,1835
47,2018-02-17,Bolu,7,1283
48,2018-02-18,Kahramanmaraş,12,1468
49,2018-02-19,Kastamonu,13,1937
50,2018-02-20,Bolu,10,1700
51,2018-02-21,Hatay,11,1246
52,2018-02-22,Ankara,4,1797
53,2018-02-23,Amasya,11,1216
54,2018-02-24,Manisa,15,1182
55,2018-02-25,Batman,8,1539
56,2018-02-26,Ardahan,9,1133
57,2018-02-27,Konya,12,1787
58,2018-02-28,Eskişehir,9,1970
59,2018-03-01,Hakkari,5,1873
60,2018-03-02,Rize,14,1487
61,2018-03-03,Antalya,14,1790
62,2018-03-04,Uşak,2,1220
63,2018-03-05,Bursa,16,1542
64,2018-03-06,Yozgat,16,1139
65,2018-03-07,Hakkari,17,1607
66,2018-03-08,Kocaeli,13,1735
67,2018-03-09,Erzincan,13,1629
68,2018-03-10,Tokat,5,1953
69,2018-03-11,Kahramanmaraş,17,1418
70,2018-03-12,Balıkesir,10,1377
71,2018-03-13,Sakarya,4,1191
72,2018-03-14,Elazığ,5,1836
73,2018-03-15,Şırnak,11,1041
74,2018-03-16,Diyarbakır,4,1900
75,2018-03-17,Hakkari,1,1555
76,2018-03-18,Tekirdağ,17,1380
77,2018-03-19,Kırıkkale,7,1326
78,2018-03-20,Kars,2,1863
79,2018-03-21,Çorum,3,1708
80,2018-03-22,Amasya,4,1392
81,2018-03-23,Burdur,4,1464
82,2018-03-24,Balıkesir,2,1045
83,2018-03-25,Kütahya,1,1361
84,2018-03-26,Adana,8,1371
85,2018-03-27,Zonguldak,1,1053
86,2018-03-28,Karabük,4,1655
87,2018-03-29,Ordu,13,1491
88,2018-03-30,Tunceli,17,1319
89,2018-03-31,Tekirdağ,5,1911
90,2018-04-01,Çanakkale,10,1108
91,2018-04-02,İzmir,9,1809
92,2018-04-03,Van,17,1495
93,2018-04-04,İzmir,10,1793
94,2018-04-05,Kastamonu,6,1960
95,2018-04-06,Düzce,16,1580
96,2018-04-07,İçel (Mersin),9,1685
97,2018-04-08,Amasya,1,1789
98,2018-04-09,Şanlıurfa,12,1715
99,2018-04-10,Samsun,15,1922
100,2018-04-11,Gümüşhane,3,1378
101,2018-04-12,Şırnak,13,1386
102,2018-04-13,Giresun,6,1186
103,2018-04-14,Samsun,2,1844
104,2018-04-15,Burdur,16,1557
105,2018-04-16,Ordu,13,1137
106,2018-04-17,Artvin,13,1483
107,2018-04-18,Zonguldak,7,1153
108,2018-04-19,Yozgat,7,1691
109,2018-04-20,Niğde,11,1244
110,2018-04-21,Yalova,12,1185
111,2018-04-22,Diyarbakır,15,1111
112,2018-04-23,Rize,11,1865
113,2018-04-24,Antalya,11,1157
114,2018-04-25,İzmir,6,1849
115,2018-04-26,Adıyaman,15,1341
116,2018-04-27,Çanakkale,4,1544
117,2018-04-28,Bingöl,2,1314
118,2018-04-29,Siirt,1,1340
119,2018-04-30,Trabzon,6,1394
120,2018-05-01,Kırıkkale,8,1077
121,2018-05-02,Bingöl,13,1822
122,2018-05-03,Kayseri,16,1415
123,2018-05-04,Rize,14,1376
124,2018-05-05,Elazığ,16,1890
125,2018-05-06,Muş,3,1388
126,2018-05-07,Samsun,12,1858
127,2018-05-08,Kastamonu,8,1848
128,2018-05-09,Erzincan,17,1179
129,2018-05-10,Ankara,17,1100
130,2018-05-11,Siirt,6,1715
131,2018-05-12,Muğla,4,1408
132,2018-05-13,Niğde,8,1111
133,2018-05-14,Çankırı,9,1010
134,2018-05-15,Rize,10,1295
135,2018-05-16,Aksaray,15,1230
136,2018-05-17,Düzce,12,1217
137,2018-05-18,Karaman,4,1203
138,2018-05-19,Konya,2,1394
139,2018-05-20,Ordu,17,1645
140,2018-05-21,Batman,14,1782
141,2018-05-22,Burdur,8,1620
142,2018-05-23,Muş,5,1579
143,2018-05-24,İstanbul,2,1175
144,2018-05-25,Kastamonu,5,1755
145,2018-05-26,Yalova,3,1344
146,2018-05-27,Gümüşhane,13,1815
147,2018-05-28,Antalya,6,1647
148,2018-05-29,Adıyaman,15,1344
149,2018-05-30,Antalya,8,1863
150,2018-05-31,Isparta,7,1760
151,2018-06-01,Afyon,7,1139
152,2018-06-02,Tokat,17,1335
153,2018-06-03,Erzurum,14,1797
154,2018-06-04,Kocaeli,16,1006
155,2018-06-05,Kocaeli,7,1536
156,2018-06-06,Aydın,4,1303
157,2018-06-07,Kastamonu,11,1088
158,2018-06-08,Aydın,7,1382
159,2018-06-09,Trabzon,2,1636
160,2018-06-10,Niğde,3,1796
161,2018-06-11,Bayburt,8,1875
162,2018-06-12,Siirt,9,1898
163,2018-06-13,Hakkari,9,1861
164,2018-06-14,Karaman,6,1417
165,2018-06-15,Bolu,10,1578
166,2018-06-16,Artvin,3,1338
167,2018-06-17,Kayseri,14,1788
168,2018-06-18,Mardin,6,1142
169,2018-06-19,Şanlıurfa,9,1188
170,2018-06-20,Edirne,9,1789
171,2018-06-21,Rize,1,1523
172,2018-06-22,Erzurum,11,1372
173,2018-06-23,Karabük,8,1662
174,2018-06-24,Çanakkale,16,1244
175,2018-06-25,Erzurum,16,1421
176,2018-06-26,Muğla,17,1930
177,2018-06-27,Kocaeli,10,1298
178,2018-06-28,Tekirdağ,15,1571
179,2018-06-29,Sivas,9,1770
180,2018-06-30,Bartın,15,1855
181,2018-07-01,Düzce,15,1881
182,2018-07-02,Isparta,4,1573
183,2018-07-03,Hatay,4,1714
184,2018-07-04,Karabük,12,1583
185,2018-07-05,Ankara,14,1680
186,2018-07-06,Adana,17,1780
187,2018-07-07,Edirne,8,1094
188,2018-07-08,Ardahan,3,1267
189,2018-07-09,Edirne,15,1222
190,2018-07-10,Şanlıurfa,7,1290
191,2018-07-11,Kırıkkale,10,1372
192,2018-07-12,Trabzon,2,1196
193,2018-07-13,Kars,7,1579
194,2018-07-14,Afyon,5,1023
195,2018-07-15,Balıkesir,12,1249
196,2018-07-16,Sivas,6,1926
197,2018-07-17,Afyon,5,1435
198,2018-07-18,Düzce,7,1689
199,2018-07-19,Muğla,3,1759
200,2018-07-20,Afyon,11,1698
201,2018-07-21,Aksaray,17,1431
202,2018-07-22,Tunceli,1,1168
203,2018-07-23,Osmaniye,17,1516
204,2018-07-24,Çorum,8,1060
205,2018-07-25,Bolu,8,1628
206,2018-07-26,Sakarya,4,1947
207,2018-07-27,Samsun,5,1525
208,2018-07-28,Bursa,7,1479
209,2018-07-29,İçel (Mersin),11,1914
210,2018-07-30,Düzce,15,1356
211,2018-07-31,Manisa,10,1508
212,2018-08-01,Muğla,6,1437
213,2018-08-02,Karaman,13,1533
214,2018-08-03,Erzurum,10,1403
215,2018-08-04,Isparta,2,1541
216,2018-08-05,Sakarya,8,1333
217,2018-08-06,Adıyaman,3,1284
218,2018-08-07,Adana,3,1075
219,2018-08-08,Şanlıurfa,6,1238
220,2018-08-09,Bartın,9,1535
221,2018-08-10,Karabük,15,1657
222,2018-08-11,Trabzon,13,1882
223,2018-08-12,Bartın,12,1249
224,2018-08-13,Hatay,5,1059
225,2018-08-14,Muş,11,1830
226,2018-08-15,Çorum,5,1831
227,2018-08-16,Kayseri,6,1425
228,2018-08-17,Bingöl,12,1431
229,2018-08-18,Adana,6,1531
230,2018-08-19,Çankırı,1,1632
231,2018-08-20,Gaziantep,2,1913
232,2018-08-21,Tekirdağ,7,1496
233,2018-08-22,İstanbul,4,1161
234,2018-08-23,Afyon,6,1574
235,2018-08-24,Samsun,14,1178
236,2018-08-25,Bilecik,4,1470
237,2018-08-26,Bursa,2,1572
238,2018-08-27,Niğde,6,1312
239,2018-08-28,Siirt,1,1051
240,2018-08-29,Çankırı,14,1144
241,2018-08-30,Diyarbakır,11,1116
242,2018-08-31,Şırnak,8,1970
243,2018-09-01,Kırıkkale,17,1703
244,2018-09-02,Bingöl,17,1392
245,2018-09-03,Bitlis,3,1094
246,2018-09-04,Kastamonu,16,1228
247,2018-09-05,Hatay,3,1218
248,2018-09-06,Şırnak,11,1478
249,2018-09-07,İçel (Mersin),10,1214
250,2018-09-08,Denizli,5,1504
251,2018-09-09,Bartın,2,1112
252,2018-09-10,Mardin,4,1223
253,2018-09-11,Burdur,16,1898
254,2018-09-12,Yalova,5,1789
255,2018-09-13,Muğla,15,1045
256,2018-09-14,Nevşehir,15,1415
257,2018-09-15,Mardin,5,1468
258,2018-09-16,Eskişehir,3,1688
259,2018-09-17,Ankara,17,1375
260,2018-09-18,Ordu,13,1265
261,2018-09-19,Kars,12,1872
262,2018-09-20,Bingöl,4,1429
263,2018-09-21,Rize,10,1921
264,2018-09-22,Gaziantep,2,1820
265,2018-09-23,Yalova,2,1408
266,2018-09-24,Kars,8,1882
267,2018-09-25,Hakkari,4,1932
268,2018-09-26,Bingöl,6,1936
269,2018-09-27,Ordu,4,1361
270,2018-09-28,Muş,3,1538
271,2018-09-29,Kütahya,10,1297
272,2018-09-30,Tekirdağ,10,1423
273,2018-10-01,Çorum,12,1762
274,2018-10-02,Iğdır,6,1769
275,2018-10-03,Zonguldak,7,1061
276,2018-10-04,Tokat,1,1190
277,2018-10-05,Trabzon,5,1284
278,2018-10-06,Konya,5,1854
279,2018-10-07,Bitlis,4,1785
280,2018-10-08,Çankırı,10,1735
281,2018-10-09,Zonguldak,8,1883
282,2018-10-10,Sivas,13,1929
283,2018-10-11,Trabzon,6,1109
284,2018-10-12,Ardahan,11,1230
285,2018-10-13,Çanakkale,9,1810
286,2018-10-14,Yozgat,8,1823
287,2018-10-15,Muş,14,1284
288,2018-10-16,Karaman,10,1504
289,2018-10-17,Yozgat,12,1774
290,2018-10-18,Giresun,12,1901
291,2018-10-19,Batman,2,1292
292,2018-10-20,Şırnak,4,1614
293,2018-10-21,Tunceli,16,1896
294,2018-10-22,Tunceli,14,1037
295,2018-10-23,Tokat,12,1499
296,2018-10-24,Kocaeli,3,1822
297,2018-10-25,Kahramanmaraş,11,1586
298,2018-10-26,Nevşehir,7,1390
299,2018-10-27,Ordu,14,1981
300,2018-10-28,Yozgat,10,1324
301,2018-10-29,Adıyaman,8,1679
302,2018-10-30,Kastamonu,7,1701
303,2018-10-31,Amasya,9,1284
304,2018-11-01,Şanlıurfa,1,1039
305,2018-11-02,Gaziantep,15,1797
306,2018-11-03,Nevşehir,14,1978
307,2018-11-04,Bitlis,9,1536
308,2018-11-05,Rize,15,1691
309,2018-11-06,Kilis,12,1224
310,2018-11-07,Erzincan,3,1786
311,2018-11-08,Erzincan,9,1678
312,2018-11-09,Kilis,2,1247
313,2018-11-10,Amasya,8,1342
314,2018-11-11,Samsun,2,1907
315,2018-11-12,Ankara,16,1798
316,2018-11-13,Siirt,10,1457
317,2018-11-14,Antalya,11,1434
318,2018-11-15,Artvin,17,1909
319,2018-11-16,Antalya,14,1429
320,2018-11-17,Erzincan,4,1750
321,2018-11-18,Hatay,16,1519
322,2018-11-19,Osmaniye,6,1001
323,2018-11-20,Bolu,4,1254
324,2018-11-21,Kayseri,1,1743
325,2018-11-22,Bolu,5,1968
326,2018-11-23,Samsun,15,1692
327,2018-11-24,Kastamonu,6,1346
328,2018-11-25,Kocaeli,4,1602
329,2018-11-26,Adana,15,1703
330,2018-11-27,Balıkesir,12,1358
331,2018-11-28,Yozgat,5,1671
332,2018-11-29,Samsun,2,1011
333,2018-11-30,Van,4,1970
334,2018-12-01,Kastamonu,9,1985
335,2018-12-02,Düzce,3,1173
336,2018-12-03,Konya,5,1512
337,2018-12-04,Kocaeli,17,1201
338,2018-12-05,Afyon,10,1602
339,2018-12-06,Karabük,16,1757
340,2018-12-07,Gümüşhane,4,1280
341,2018-12-08,Malatya,15,1524
342,2018-12-09,Şanlıurfa,1,1528
343,2018-12-10,Çorum,9,1250
344,2018-12-11,Tokat,7,1943
345,2018-12-12,İstanbul,3,1929
346,2018-12-13,Amasya,10,1967
347,2018-12-14,Ağrı,16,1159
348,2018-12-15,Muğla,15,1308
349,2018-12-16,Edirne,16,1254
350,2018-12-17,İzmir,3,1932
351,2018-12-18,Konya,2,1368
352,2018-12-19,Eskişehir,16,1517
353,2018-12-20,Bitlis,11,1490
354,2018-12-21,Nevşehir,4,1704
355,2018-12-22,Rize,2,1485
356,2018-12-23,Kars,17,1019
357,2018-12-24,Bitlis,4,1947
358,2018-12-25,Sivas,6,1219
359,2018-12-26,Şanlıurfa,17,1167
360,2018-12-27,Bartın,16,1980
361,2018-12-28,Giresun,9,1840
362,2018-12-29,Samsun,13,1452
363,2018-12-30,Erzincan,17,1104
